PRcalc - Import Dataset
…
Example 1: Spanned structure

library(tidyverse)
library(PRcalc)

Load sample dataset, jp_lower_2021_result.

data("jp_lower_2021_result")

jp_lower_2021_result

# A tibble: 103 × 4
   Party Pref          Votes Seats
   <chr> <chr>         <int> <dbl>
 1 Jimin Hokkaido     863300     3
 2 Jimin Tohoku      1628233     6
 3 Jimin Kitakanto   2172065     7
 4 Jimin Minamikanto 2590787     7
 5 Jimin Tokyo       2000084     5
 6 Jimin Hokuriku    1468380     5
 7 Jimin Tokai       2515841     8
 8 Jimin Kinki       2407699     8
 9 Jimin Chugoku     1352723     5
10 Jimin Shikoku      664805     2
# ℹ 93 more rows
…
